<svg width="13" height="17" viewBox="0 0 13 17" fill="none" xmlns="http://www.w3.org/2000/svg">
<path d="M10.8753 6.58097H10.3957V4.66238C10.3957 2.54612 8.67476 0.825195 6.55851 0.825195C4.44225 0.825195 2.72133 2.54612 2.72133 4.66238V6.58097H2.24168C1.44867 6.58097 0.802734 7.2262 0.802734 8.01991V14.735C0.802734 15.5287 1.44867 16.1739 2.24168 16.1739H10.8753C11.6683 16.1739 12.3143 15.5287 12.3143 14.735V8.01991C12.3143 7.2262 11.6683 6.58097 10.8753 6.58097ZM4.00042 4.66238C4.00042 3.25154 5.14767 2.10429 6.55851 2.10429C7.96935 2.10429 9.11659 3.25154 9.11659 4.66238V6.58097H4.00042V4.66238Z" fill="#56C48F"/>
</svg>
