<svg width="14" height="17" viewBox="0 0 14 17" fill="none" xmlns="http://www.w3.org/2000/svg">
<path d="M12.7919 2.55607L6.68943 0.725289C6.60398 0.699643 6.51291 0.699643 6.42744 0.725289L0.324801 2.55607C0.132029 2.6139 0 2.79136 0 2.99264V9.70549C0 10.5786 0.353486 11.4724 1.05058 12.362C1.58298 13.0415 2.31958 13.7237 3.23984 14.3899C4.78581 15.509 6.30814 16.1955 6.37219 16.2241C6.43142 16.2506 6.49493 16.2639 6.55843 16.2639C6.62194 16.2639 6.68545 16.2507 6.74467 16.2241C6.8087 16.1955 8.331 15.509 9.87697 14.3899C10.7972 13.7237 11.5338 13.0415 12.0662 12.362C12.7633 11.4724 13.1167 10.5786 13.1167 9.70549V2.99264C13.1167 2.79136 12.9848 2.6139 12.7919 2.55607Z" fill="#56C48F"/>
<path d="M3.84888 8.33862L5.75275 10.2425L9.2677 6.72754" stroke="white" stroke-width="2" stroke-linecap="round" stroke-linejoin="round"/>
</svg>
